#define max_width 14
#define max_height 14
static unsigned char max_bits[] = {
   0xfe, 0x1f, 0xff, 0x3f, 0xff, 0x3f, 0x0f, 0x3c, 0x07, 0x38, 0x07, 0x38,
   0x07, 0x38, 0x07, 0x38, 0x07, 0x38, 0x07, 0x38, 0x0f, 0x3c, 0xff, 0x3f,
   0xff, 0x3f, 0xfe, 0x1f };
