#define shade_toggled_width 14
#define shade_toggled_height 14
static unsigned char shade_toggled_bits[] = {
   0xfe, 0x1f, 0xff, 0x3f, 0xff, 0x3f, 0x0e, 0x1c, 0x0e, 0x1c, 0x1c, 0x0e,
   0x1c, 0x0e, 0x38, 0x07, 0x38, 0x07, 0xf0, 0x03, 0xf0, 0x03, 0xe0, 0x01,
   0xe0, 0x01, 0xc0, 0x00 };
