#define desk_width 14
#define desk_height 14
static unsigned char desk_bits[] = {
   0x0e, 0x1c, 0x1f, 0x3e, 0x1f, 0x3e, 0x1f, 0x3e, 0x0e, 0x1c, 0x00, 0x00,
   0x00, 0x00, 0x00, 0x00, 0x00, 0x00, 0x0e, 0x1c, 0x1f, 0x3e, 0x1f, 0x3e,
   0x1f, 0x3e, 0x0e, 0x1c };
