#define max_toggled_width 14
#define max_toggled_height 14
static unsigned char max_toggled_bits[] = {
   0xfe, 0x1f, 0xff, 0x3f, 0xff, 0x3f, 0x0f, 0x3c, 0xe7, 0x39, 0xf7, 0x3b,
   0xf7, 0x3b, 0xf7, 0x3b, 0xf7, 0x3b, 0xe7, 0x39, 0x0f, 0x3c, 0xff, 0x3f,
   0xff, 0x3f, 0xfe, 0x1f };
